<svg aria-hidden="true" style="position: absolute; width: 0; height: 0; overflow: hidden;" version="1.1" xmlns="http://www.w3.org/2000/svg" xmlns:xlink="http://www.w3.org/1999/xlink">
<defs>
<symbol id="icon-comment" viewBox="0 0 32 32">
<path d="M16 26c-1.168 0-2.296-0.136-3.38-0.367l-4.708 2.83 0.063-4.639c-3.609-2.17-5.975-5.758-5.975-9.824 0-6.627 6.268-12 14-12s14 5.373 14 12c0 6.628-6.268 12-14 12v0zM16 0c-8.836 0-16 6.269-16 14 0 4.419 2.345 8.354 6 10.919v7.081l7.009-4.253c0.97 0.16 1.968 0.253 2.991 0.253 8.836 0 16-6.268 16-14s-7.164-14-16-14v0z"></path>
</symbol>
<symbol id="icon-percent" viewBox="0 0 32 32">
<path d="M16 0c-8.837 0-16 7.163-16 16s7.163 16 16 16c8.837 0 16-7.163 16-16v0c-0.010-8.832-7.168-15.99-15.999-16h-0.001zM16 29.818c-7.632 0-13.818-6.187-13.818-13.818s6.187-13.818 13.818-13.818c7.632 0 13.818 6.187 13.818 13.818v0c0 7.632-6.187 13.818-13.818 13.818v0zM13.818 11.636c0-2.008-1.628-3.636-3.636-3.636s-3.636 1.628-3.636 3.636c0 2.008 1.628 3.636 3.636 3.636v0c2.008 0 3.636-1.628 3.636-3.636v0zM8.727 11.636c0-0.803 0.651-1.455 1.455-1.455s1.455 0.651 1.455 1.455c0 0.803-0.651 1.455-1.455 1.455v0c-0.803 0-1.455-0.651-1.455-1.455v0zM20.364 18.182c-2.008 0-3.636 1.628-3.636 3.636s1.628 3.636 3.636 3.636c2.008 0 3.636-1.628 3.636-3.636v0c0-2.008-1.628-3.636-3.636-3.636v0zM20.364 23.273c-0.803 0-1.455-0.651-1.455-1.455s0.651-1.455 1.455-1.455c0.803 0 1.455 0.651 1.455 1.455v0c0 0.803-0.651 1.455-1.455 1.455v0zM23.317 8.684c-0.197-0.199-0.47-0.322-0.772-0.322s-0.575 0.123-0.772 0.322l-13.818 13.818c-0.205 0.199-0.333 0.477-0.333 0.784 0 0.602 0.488 1.091 1.091 1.091 0.308 0 0.586-0.128 0.785-0.333l13.819-13.819c0.197-0.197 0.319-0.47 0.319-0.771s-0.122-0.574-0.319-0.771v0z"></path>
</symbol>
<symbol id="icon-info" viewBox="0 0 32 32">
<path d="M16 3c-7.168 0-13 5.832-13 13s5.832 13 13 13c7.168 0 13-5.832 13-13s-5.832-13-13-13zM16 5c6.086 0 11 4.914 11 11s-4.914 11-11 11c-6.086 0-11-4.914-11-11s4.914-11 11-11zM15 10v2h2v-2zM15 14v8h2v-8z"></path>
</symbol>
<symbol id="icon-lock" viewBox="0 0 32 32">
<path d="M16 3c-3.844 0-7 3.156-7 7v3h-3v16h20v-16h-3v-3c0-3.844-3.156-7-7-7zM16 5c2.754 0 5 2.246 5 5v3h-10v-3c0-2.754 2.246-5 5-5zM8 15h16v12h-16z"></path>
</symbol>
<symbol id="icon-search" viewBox="0 0 32 32">
<path d="M19 3c-5.512 0-10 4.488-10 10 0 2.395 0.84 4.59 2.25 6.313l-7.969 7.969 1.438 1.438 7.969-7.969c1.723 1.41 3.918 2.25 6.313 2.25 5.512 0 10-4.488 10-10s-4.488-10-10-10zM19 5c4.43 0 8 3.57 8 8s-3.57 8-8 8c-4.43 0-8-3.57-8-8s3.57-8 8-8z"></path>
</symbol>
<symbol id="icon-cart" viewBox="0 0 32 32">
<path d="M5 7c-0.551 0-1 0.449-1 1s0.449 1 1 1h2.219l2.625 10.5c0.223 0.891 1.020 1.5 1.938 1.5h11.469c0.902 0 1.668-0.598 1.906-1.469l2.594-9.531h-16.75l0.5 2h13.656l-1.906 7h-11.469l-2.625-10.5c-0.223-0.891-1.020-1.5-1.938-1.5zM22 21c-1.645 0-3 1.355-3 3s1.355 3 3 3c1.645 0 3-1.355 3-3s-1.355-3-3-3zM13 21c-1.645 0-3 1.355-3 3s1.355 3 3 3c1.645 0 3-1.355 3-3s-1.355-3-3-3zM13 23c0.563 0 1 0.438 1 1s-0.438 1-1 1c-0.563 0-1-0.438-1-1s0.438-1 1-1zM22 23c0.563 0 1 0.438 1 1s-0.438 1-1 1c-0.563 0-1-0.438-1-1s0.438-1 1-1z"></path>
</symbol>
<symbol id="icon-truck" viewBox="0 0 32 32">
<path d="M1 4v21h3.156c0.445 1.719 1.992 3 3.844 3s3.398-1.281 3.844-3h8.313c0.445 1.719 1.992 3 3.844 3s3.398-1.281 3.844-3h3.156v-10.406l-0.281-0.313-6-6-0.313-0.281h-5.406v-4zM3 6h14v17h-5.156c-0.445-1.719-1.992-3-3.844-3s-3.398 1.281-3.844 3h-1.156zM19 10h4.563l5.438 5.438v7.563h-1.156c-0.445-1.719-1.992-3-3.844-3s-3.398 1.281-3.844 3h-1.156zM8 22c1.117 0 2 0.883 2 2s-0.883 2-2 2c-1.117 0-2-0.883-2-2s0.883-2 2-2zM24 22c1.117 0 2 0.883 2 2s-0.883 2-2 2c-1.117 0-2-0.883-2-2s0.883-2 2-2z"></path>
</symbol>
<symbol id="icon-user" viewBox="0 0 32 32">
<path d="M16 5c-3.855 0-7 3.145-7 7 0 2.41 1.23 4.551 3.094 5.813-3.566 1.531-6.094 5.070-6.094 9.188h2c0-4.43 3.57-8 8-8s8 3.57 8 8h2c0-4.117-2.527-7.656-6.094-9.188 1.863-1.262 3.094-3.402 3.094-5.813 0-3.855-3.145-7-7-7zM16 7c2.773 0 5 2.227 5 5s-2.227 5-5 5c-2.773 0-5-2.227-5-5s2.227-5 5-5z"></path>
</symbol>
</defs>
</svg>
